                        ; External References:

                        D_2000            EQU  2000h
                        D_2001            EQU  2001h
                        D_2003            EQU  2003h
                        D_2005            EQU  2005h
                        D_2007            EQU  2007h
                        D_2008            EQU  2008h
                        D_2009            EQU  2009h
                        D_200A            EQU  200Ah
                        D_200B            EQU  200Bh
                        D_200C            EQU  200Ch
                        D_200F            EQU  200Fh
                        D_2011            EQU  2011h
                        D_2012            EQU  2012h
                        D_2013            EQU  2013h
                        D_2015            EQU  2015h
                        D_2017            EQU  2017h
                        D_2018            EQU  2018h
                        D_2099            EQU  2099h
                        D_209A            EQU  209Ah
                        D_209B            EQU  209Bh
                        D_209D            EQU  209Dh
                        D_209E            EQU  209Eh
                        D_209F            EQU  209Fh
                        D_20A0            EQU  20A0h
                        D_20A2            EQU  20A2h
                        D_20A3            EQU  20A3h
                        D_20A5            EQU  20A5h
                        D_20A7            EQU  20A7h
                        D_20A8            EQU  20A8h
                        D_20A9            EQU  20A9h
                        D_20AB            EQU  20ABh
                        D_20AD            EQU  20ADh
                        D_20AE            EQU  20AEh
                        D_20AF            EQU  20AFh
                        D_20B0            EQU  20B0h
                        D_20B3            EQU  20B3h
                        D_20B4            EQU  20B4h
                        D_20B5            EQU  20B5h
                        D_20B6            EQU  20B6h

                        ; IO Port Map:

                        UART              EQU  08h
                        CSR               EQU  20h
                        PA                EQU  21h
                        PB                EQU  22h
                        PC                EQU  23h
                        TIMERL            EQU  24h
                        TIMERH            EQU  25h

                        ; ROM Disassembly:


                                          ORG  0000h

0000  31 FF 20          RESET:            LXI  SP, 20FFh          ; 
0003  DB 21                               IN   PA                 ; 
0005  E6 40                               ANI  40h                ; 
0007  CA E5 00                            JZ   J_00E5             ; 
000A  CD 13 00                            CALL C_0013             ; 
000D  CD 7D 07                            CALL C_077D             ; 
0010  C3 6C 02                            JMP  J_026C             ; 

0013  AF                C_0013:           XRA  A                  ; 
0014  32 00 20                            STA  D_2000             ; 

0017  21 53 01          C_0017:           LXI  H, 0153h           ; 

001A  22 01 20          C_001A:           SHLD D_2001             ; 
001D  3E 4D                               MVI  A, 4Dh             ; 
001F  30                                  SIM                     ; 
0020  FB                                  EI                      ; 
0021  C3 45 00                            JMP  J_0045             ; 
0024  F3                RST_FRAME_ERR:    DI                      ; 
0025  31 FF 20                            LXI  SP, 20FFh          ; 
0028  DB 08                               IN   UART               ; 
002A  3E FD                               MVI  A, 0FDh            ; 
002C  D3 22             RST_UART_TX:      OUT  PB                 ; 
002E  2E 05                               MVI  L, 05h             ; 
0030  C3 5D 00                            JMP  J_005D             ; 

0033  00                                  DB   00h                ; (UNREACHABLE) 

0034  F5                RST_UART_RX:      PUSH PSW                ; 
0035  E5                                  PUSH H                  ; 
0036  DB 08                               IN   UART               ; 
0038  2A 01 20                            LHLD D_2001             ; 
003B  E9                                  PCHL                    ; 
003C  3E 10             RST_RD_STROBE:    MVI  A, 10h             ; 
003E  30                                  SIM                     ; 
003F  20                                  RIM                     ; 
0040  07                                  RLC                     ; 
0041  78                                  MOV  A, B               ; 
0042  1F                                  RAR                     ; 
0043  47                                  MOV  B, A               ; 
0044  C9                                  RET                     ; 

0045  3E FE             J_0045:           MVI  A, 0FEh            ; 
0047  D3 20                               OUT  CSR                ; 
0049  3E FD                               MVI  A, 0FDh            ; 
004B  D3 22                               OUT  PB                 ; 
004D  DB 23                               IN   PC                 ; 
004F  F6 01                               ORI  01h                ; 
0051  D3 23                               OUT  PC                 ; 
0053  3E 0C                               MVI  A, 0Ch             ; 
0055  32 AD 20                            STA  D_20AD             ; 
0058  AF                                  XRA  A                  ; 
0059  32 A2 20                            STA  D_20A2             ; 
005C  C9                                  RET                     ; 

005D  CD D2 00          J_005D:           CALL C_00D2             ; 
0060  20                                  RIM                     ; 
0061  E6 20                               ANI  20h                ; 
0063  CA 5D 00                            JZ   J_005D             ; 
0066  2D                                  DCR  L                  ; 
0067  CA 6C 02                            JZ   J_026C             ; 
006A  DB 08                               IN   UART               ; 
006C  FE 04                               CPI  04h                ; 
006E  C2 5D 00                            JNZ  J_005D             ; 
0071  CD 13 00                            CALL C_0013             ; 
0074  32 B6 20                            STA  D_20B6             ; 

0077  31 FF 20          J_0077:           LXI  SP, 20FFh          ; 
007A  CD 7E 02                            CALL C_027E             ; 
007D  21 00 00                            LXI  H, 0000h           ; 
0080  22 B4 20                            SHLD D_20B4             ; 
0083  22 03 20                            SHLD D_2003             ; 
0086  3E 4D                               MVI  A, 4Dh             ; 
0088  30                                  SIM                     ; 
0089  FB                                  EI                      ; 

008A  CD 0A 03          J_008A:           CALL C_030A             ; 
008D  CD D2 00                            CALL C_00D2             ; 
0090  3A A2 20                            LDA  D_20A2             ; 
0093  E6 80                               ANI  80h                ; 
0095  CA 8A 00                            JZ   J_008A             ; 
0098  3A 07 20                            LDA  D_2007             ; 
009B  FE 02                               CPI  02h                ; 
009D  C2 6C 02                            JNZ  J_026C             ; 
00A0  3A 09 20                            LDA  D_2009             ; 
00A3  FE 0B                               CPI  0Bh                ; 
00A5  3E D0                               MVI  A, 0D0h            ; 
00A7  D2 66 07                            JNC  J_0766             ; 
00AA  3A 09 20                            LDA  D_2009             ; 
00AD  21 BA 00                            LXI  H, 00BAh           ; 
00B0  07                                  RLC                     ; 
00B1  5F                                  MOV  E, A               ; 
00B2  16 00                               MVI  D, 00h             ; 
00B4  19                                  DAD  D                  ; 
00B5  5E                                  MOV  E, M               ; 
00B6  23                                  INX  H                  ; 
00B7  56                                  MOV  D, M               ; 
00B8  EB                                  XCHG                    ; 
00B9  E9                                  PCHL                    ; 

00BA  37                JMPTBL:           DW   V_0737             ;  
00BC  77                                  DW   V_0777             ;  
00BE  0E                                  DW   V_070E             ;  
00C0  B9                                  DW   V_05B9             ;  
00C2  37                                  DW   V_0737             ;  
00C4  87                                  DW   V_0287             ;  
00C6  37                                  DW   V_0737             ;  
00C8  CF                                  DW   V_07CF             ;  
00CA  37                                  DW   V_0737             ;  
00CC  37                                  DW   V_0737             ;  
00CE  D5                                  DW   V_07D5             ;  
00D0  37                                  DW   V_0737             ;  

00D2  DB 21             C_00D2:           IN   PA                 ; 
00D4  E6 40                               ANI  40h                ; 
00D6  3A B6 20                            LDA  D_20B6             ; 
00D9  CA E2 00                            JZ   J_00E2             ; 
00DC  F6 01                               ORI  01h                ; 
00DE  32 B6 20                            STA  D_20B6             ; 
00E1  C9                                  RET                     ; 

00E2  E6 01             J_00E2:           ANI  01h                ; 
00E4  C8                                  RZ                      ; 

00E5  31 FF 20          J_00E5:           LXI  SP, 20FFh          ; 
00E8  21 A2 01                            LXI  H, 01A2h           ; 
00EB  CD 1A 00                            CALL C_001A             ; 
00EE  D3 23                               OUT  PC                 ; 
00F0  06 FF                               MVI  B, 0FFh            ; 
00F2  CD F6 03                            CALL C_03F6             ; 
00F5  CD 7D 07                            CALL C_077D             ; 
00F8  32 0B 20                            STA  D_200B             ; 
00FB  32 00 20                            STA  D_2000             ; 
00FE  21 00 00                            LXI  H, 0000h           ; 
0101  22 A9 20                            SHLD D_20A9             ; 

0104  CD 44 05          J_0104:           CALL C_0544             ; 
0107  CD 00 04                            CALL C_0400             ; 
010A  21 19 20                            LXI  H, 2019h           ; 
010D  0E 80                               MVI  C, 80h             ; 

010F  7E                J_010F:           MOV  A, M               ; 
0110  CD 13 02                            CALL C_0213             ; 
0113  57                                  MOV  D, A               ; 
0114  3A 01 20                            LDA  D_2001             ; 
0117  FE F8                               CPI  0F8h               ; 
0119  CA 30 01                            JZ   J_0130             ; 
011C  7A                                  MOV  A, D               ; 
011D  FE 47                               CPI  47h                ; 
011F  CA 4A 01                            JZ   J_014A             ; 
0122  06 02                               MVI  B, 02h             ; 
0124  E6 F8                               ANI  0F8h               ; 
0126  EE 30                               XRI  30h                ; 
0128  CA 2D 01                            JZ   J_012D             ; 
012B  06 14                               MVI  B, 14h             ; 

012D  CD F6 03          J_012D:           CALL C_03F6             ; 

0130  23                J_0130:           INX  H                  ; 
0131  0D                                  DCR  C                  ; 
0132  C2 0F 01                            JNZ  J_010F             ; 
0135  2A A9 20                            LHLD D_20A9             ; 
0138  23                                  INX  H                  ; 
0139  22 A9 20                            SHLD D_20A9             ; 
013C  3E 04                               MVI  A, 04h             ; 
013E  BD                                  CMP  L                  ; 
013F  C2 04 01                            JNZ  J_0104             ; 
0142  3A 01 20                            LDA  D_2001             ; 
0145  FE F8                               CPI  0F8h               ; 
0147  C2 04 01                            JNZ  J_0104             ; 

014A  CD 13 00          J_014A:           CALL C_0013             ; 
014D  32 B6 20                            STA  D_20B6             ; 
0150  C3 77 00                            JMP  J_0077             ; 
0153  FE 08             PCHL_0153:        CPI  08h                ; 
0155  21 F8 00                            LXI  H, 00F8h           ; 
0158  CA 9F 01                            JZ   J_019F             ; 
015B  FE 13                               CPI  13h                ; 
015D  C2 68 01                            JNZ  J_0168             ; 
0160  3E FF                               MVI  A, 0FFh            ; 
0162  32 00 20                            STA  D_2000             ; 
0165  C3 A2 01                            JMP  J_01A2             ; 

0168  6F                J_0168:           MOV  L, A               ; 
0169  E6 FE                               ANI  0FEh               ; 
016B  FE 10                               CPI  10h                ; 
016D  C2 77 01                            JNZ  J_0177             ; 
0170  AF                                  XRA  A                  ; 
0171  32 00 20                            STA  D_2000             ; 
0174  C3 A2 01                            JMP  J_01A2             ; 

0177  3E 04             J_0177:           MVI  A, 04h             ; 
0179  BD                                  CMP  L                  ; 
017A  CA 2F 02                            JZ   J_022F             ; 
017D  3A A2 20                            LDA  D_20A2             ; 
0180  E6 80                               ANI  80h                ; 
0182  C2 6C 02                            JNZ  J_026C             ; 
0185  7D                                  MOV  A, L               ; 
0186  32 07 20                            STA  D_2007             ; 
0189  32 9F 20                            STA  D_209F             ; 
018C  11 19 20                            LXI  D, 2019h           ; 
018F  FE 01                               CPI  01h                ; 
0191  CA 9C 01                            JZ   J_019C             ; 
0194  11 09 20                            LXI  D, 2009h           ; 
0197  FE 02                               CPI  02h                ; 
0199  C2 6C 02                            JNZ  J_026C             ; 

019C  21 A6 01          J_019C:           LXI  H, 01A6h           ; 

019F  22 01 20          J_019F:           SHLD D_2001             ; 

01A2  E1                J_01A2:           POP  H                  ; 
01A3  F1                                  POP  PSW                ; 
01A4  FB                                  EI                      ; 
01A5  C9                                  RET                     ; 
01A6  4F                PCHL_01A6:        MOV  C, A               ; 
01A7  32 08 20                            STA  D_2008             ; 
01AA  32 A0 20                            STA  D_20A0             ; 
01AD  FE 81                               CPI  81h                ; 
01AF  D2 6C 02                            JNC  J_026C             ; 
01B2  06 01                               MVI  B, 01h             ; 
01B4  21 BA 01                            LXI  H, 01BAh           ; 
01B7  C3 9F 01                            JMP  J_019F             ; 
01BA  12                PCHL_01BA:        STAX D                  ; 
01BB  1A                                  LDAX D                  ; 
01BC  CD F5 01                            CALL C_01F5             ; 
01BF  0D                                  DCR  C                  ; 
01C0  CA C7 01                            JZ   J_01C7             ; 
01C3  13                                  INX  D                  ; 
01C4  C3 A2 01                            JMP  J_01A2             ; 

01C7  21 CD 01          J_01C7:           LXI  H, 01CDh           ; 
01CA  C3 9F 01                            JMP  J_019F             ; 
01CD  21 9F 20          PCHL_01CD:        LXI  H, 209Fh           ; 
01D0  96                                  SUB  M                  ; 
01D1  C2 6C 02                            JNZ  J_026C             ; 
01D4  21 DA 01                            LXI  H, 01DAh           ; 
01D7  C3 9F 01                            JMP  J_019F             ; 
01DA  21 A0 20          PCHL_01DA:        LXI  H, 20A0h           ; 
01DD  96                                  SUB  M                  ; 
01DE  C2 6C 02                            JNZ  J_026C             ; 
01E1  2A 9F 20                            LHLD D_209F             ; 
01E4  22 05 20                            SHLD D_2005             ; 
01E7  3A A2 20                            LDA  D_20A2             ; 
01EA  F6 80                               ORI  80h                ; 
01EC  32 A2 20                            STA  D_20A2             ; 
01EF  21 53 01                            LXI  H, 0153h           ; 
01F2  C3 9F 01                            JMP  J_019F             ; 

01F5  E5                C_01F5:           PUSH H                  ; 
01F6  6F                                  MOV  L, A               ; 
01F7  78                                  MOV  A, B               ; 
01F8  EE 01                               XRI  01h                ; 
01FA  47                                  MOV  B, A               ; 
01FB  C2 06 02                            JNZ  J_0206             ; 

01FE  7D                J_01FE:           MOV  A, L               ; 
01FF  21 9F 20                            LXI  H, 209Fh           ; 
0202  8E                                  ADC  M                  ; 
0203  77                                  MOV  M, A               ; 
0204  2E 00                               MVI  L, 00h             ; 

0206  7D                J_0206:           MOV  A, L               ; 
0207  21 A0 20                            LXI  H, 20A0h           ; 
020A  8E                                  ADC  M                  ; 
020B  77                                  MOV  M, A               ; 
020C  2E 00                               MVI  L, 00h             ; 
020E  DA FE 01                            JC   J_01FE             ; 
0211  E1                                  POP  H                  ; 
0212  C9                                  RET                     ; 

0213  F5                C_0213:           PUSH PSW                ; 
0214  E5                                  PUSH H                  ; 
0215  2E 08                               MVI  L, 08h             ; 

0217  2D                J_0217:           DCR  L                  ; 
0218  C5                                  PUSH B                  ; 
0219  CC 00 04                            CZ   C_0400             ; 
021C  C1                                  POP  B                  ; 
021D  20                                  RIM                     ; 
021E  E6 10                               ANI  10h                ; 
0220  CA 17 02                            JZ   J_0217             ; 
0223  3A 00 20                            LDA  D_2000             ; 
0226  3C                                  INR  A                  ; 
0227  CA 17 02                            JZ   J_0217             ; 
022A  E1                                  POP  H                  ; 
022B  F1                                  POP  PSW                ; 
022C  D3 08                               OUT  UART               ; 
022E  C9                                  RET                     ; 

022F  31 FF 20          J_022F:           LXI  SP, 20FFh          ; 
0232  CD 13 00                            CALL C_0013             ; 
0235  CD 3E 05                            CALL C_053E             ; 
0238  C3 77 00                            JMP  J_0077             ; 

023B  21 17 20          C_023B:           LXI  H, 2017h           ; 
023E  36 01                               MVI  M, 01h             ; 
0240  23                                  INX  H                  ; 

0241  56                C_0241:           MOV  D, M               ; 
0242  14                                  INR  D                  ; 
0243  14                                  INR  D                  ; 
0244  AF                                  XRA  A                  ; 
0245  32 9F 20                            STA  D_209F             ; 
0248  32 A0 20                            STA  D_20A0             ; 
024B  06 01                               MVI  B, 01h             ; 
024D  2B                                  DCX  H                  ; 

024E  7E                J_024E:           MOV  A, M               ; 
024F  CD F5 01                            CALL C_01F5             ; 
0252  7E                                  MOV  A, M               ; 
0253  CD 13 02                            CALL C_0213             ; 
0256  23                                  INX  H                  ; 
0257  15                                  DCR  D                  ; 
0258  C2 4E 02                            JNZ  J_024E             ; 
025B  21 9F 20                            LXI  H, 209Fh           ; 
025E  CD 62 02                            CALL C_0262             ; 
0261  23                                  INX  H                  ; 

0262  3E 1E             C_0262:           MVI  A, 1Eh             ; 
0264  CD ED 03                            CALL C_03ED             ; 
0267  7E                                  MOV  A, M               ; 
0268  CD 13 02                            CALL C_0213             ; 
026B  C9                                  RET                     ; 

026C  F3                J_026C:           DI                      ; 
026D  31 FF 20                            LXI  SP, 20FFh          ; 
0270  CD 13 00                            CALL C_0013             ; 

0273  3E 04             J_0273:           MVI  A, 04h             ; 
0275  CD 13 02                            CALL C_0213             ; 
0278  CD D2 00                            CALL C_00D2             ; 
027B  C3 73 02                            JMP  J_0273             ; 

027E  3A A2 20          C_027E:           LDA  D_20A2             ; 
0281  E6 7F                               ANI  7Fh                ; 
0283  32 A2 20                            STA  D_20A2             ; 
0286  C9                                  RET                     ; 

0287  CD EB 06          V_0287:           CALL C_06EB             ; 
028A  CD 96 02                            CALL C_0296             ; 
028D  CD 16 03                            CALL C_0316             ; 
0290  CD 00 04                            CALL C_0400             ; 
0293  C3 37 07                            JMP  V_0737             ; 

0296  2A A9 20          C_0296:           LHLD D_20A9             ; 
0299  EB                                  XCHG                    ; 
029A  21 AE 20                            LXI  H, 20AEh           ; 
029D  36 E9                               MVI  M, 0E9h            ; 
029F  7A                                  MOV  A, D               ; 
02A0  FE 08                               CPI  08h                ; 
02A2  3E FE                               MVI  A, 0FEh            ; 
02A4  D2 66 07                            JNC  J_0766             ; 
02A7  7A                                  MOV  A, D               ; 
02A8  FE 04                               CPI  04h                ; 
02AA  3F                                  CMC                     ; 
02AB  7B                                  MOV  A, E               ; 
02AC  17                                  RAL                     ; 
02AD  5F                                  MOV  E, A               ; 
02AE  7A                                  MOV  A, D               ; 
02AF  17                                  RAL                     ; 
02B0  E6 07                               ANI  07h                ; 
02B2  57                                  MOV  D, A               ; 
02B3  FE 04                               CPI  04h                ; 
02B5  DA BA 02                            JC   J_02BA             ; 
02B8  36 F9                               MVI  M, 0F9h            ; 

02BA  3A 0B 20          J_02BA:           LDA  D_200B             ; 
02BD  FE 01                               CPI  01h                ; 
02BF  CA CA 02                            JZ   J_02CA             ; 
02C2  DA D6 02                            JC   J_02D6             ; 
02C5  3E F8                               MVI  A, 0F8h            ; 
02C7  C3 66 07                            JMP  J_0766             ; 

02CA  7E                J_02CA:           MOV  A, M               ; 
02CB  E6 F7                               ANI  0F7h               ; 
02CD  77                                  MOV  M, A               ; 
02CE  3E 04                               MVI  A, 04h             ; 
02D0  2A A5 20                            LHLD D_20A5             ; 
02D3  C3 DB 02                            JMP  J_02DB             ; 

02D6  3E 08             J_02D6:           MVI  A, 08h             ; 
02D8  2A A3 20                            LHLD D_20A3             ; 

02DB  32 B3 20          J_02DB:           STA  D_20B3             ; 
02DE  4F                                  MOV  C, A               ; 
02DF  3A AD 20                            LDA  D_20AD             ; 
02E2  A1                                  ANA  C                  ; 
02E3  CA E8 02                            JZ   J_02E8             ; 
02E6  6B                                  MOV  L, E               ; 
02E7  62                                  MOV  H, D               ; 

02E8  CD F0 02          J_02E8:           CALL C_02F0             ; 
02EB  EB                                  XCHG                    ; 
02EC  22 A7 20                            SHLD D_20A7             ; 
02EF  C9                                  RET                     ; 

02F0  CD 0A 03          C_02F0:           CALL C_030A             ; 
02F3  E5                                  PUSH H                  ; 
02F4  21 B3 20                            LXI  H, 20B3h           ; 
02F7  DB 21                               IN   PA                 ; 
02F9  A6                                  ANA  M                  ; 
02FA  3E F7                               MVI  A, 0F7h            ; 
02FC  C2 66 07                            JNZ  J_0766             ; 
02FF  3A AD 20                            LDA  D_20AD             ; 
0302  2F                                  CMA                     ; 
0303  B6                                  ORA  M                  ; 
0304  2F                                  CMA                     ; 
0305  32 AD 20                            STA  D_20AD             ; 
0308  E1                                  POP  H                  ; 
0309  C9                                  RET                     ; 

030A  E5                C_030A:           PUSH H                  ; 
030B  DB 21                               IN   PA                 ; 
030D  E6 0C                               ANI  0Ch                ; 
030F  21 AD 20                            LXI  H, 20ADh           ; 
0312  B6                                  ORA  M                  ; 
0313  77                                  MOV  M, A               ; 
0314  E1                                  POP  H                  ; 
0315  C9                                  RET                     ; 

0316  3E F8             C_0316:           MVI  A, 0F8h            ; 
0318  32 B0 20                            STA  D_20B0             ; 

031B  CD F0 02          J_031B:           CALL C_02F0             ; 
031E  2A A7 20                            LHLD D_20A7             ; 
0321  7C                                  MOV  A, H               ; 
0322  E6 03                               ANI  03h                ; 
0324  67                                  MOV  H, A               ; 
0325  7A                                  MOV  A, D               ; 
0326  E6 03                               ANI  03h                ; 
0328  57                                  MOV  D, A               ; 
0329  7D                                  MOV  A, L               ; 
032A  93                                  SUB  E                  ; 
032B  6F                                  MOV  L, A               ; 
032C  7C                                  MOV  A, H               ; 
032D  9A                                  SBB  D                  ; 
032E  67                                  MOV  H, A               ; 
032F  D2 58 03                            JNC  J_0358             ; 

0332  3A B0 20          J_0332:           LDA  D_20B0             ; 
0335  3C                                  INR  A                  ; 
0336  32 B0 20                            STA  D_20B0             ; 
0339  3E E0                               MVI  A, 0E0h            ; 
033B  CA 66 07                            JZ   J_0766             ; 
033E  7D                                  MOV  A, L               ; 
033F  2F                                  CMA                     ; 
0340  6F                                  MOV  L, A               ; 
0341  7C                                  MOV  A, H               ; 
0342  2F                                  CMA                     ; 
0343  67                                  MOV  H, A               ; 
0344  23                                  INX  H                  ; 
0345  23                                  INX  H                  ; 
0346  23                                  INX  H                  ; 
0347  3A AE 20                            LDA  D_20AE             ; 
034A  F6 04                               ORI  04h                ; 
034C  32 AE 20                            STA  D_20AE             ; 
034F  CD 2D 04                            CALL C_042D             ; 
0352  CD 00 04                            CALL C_0400             ; 
0355  C3 72 03                            JMP  J_0372             ; 

0358  AF                J_0358:           XRA  A                  ; 
0359  BC                                  CMP  H                  ; 
035A  C2 67 03                            JNZ  J_0367             ; 
035D  BD                                  CMP  L                  ; 
035E  CA 32 03                            JZ   J_0332             ; 
0361  3E 04                               MVI  A, 04h             ; 
0363  BD                                  CMP  L                  ; 
0364  D2 72 03                            JNC  J_0372             ; 

0367  2B                J_0367:           DCX  H                  ; 
0368  2B                                  DCX  H                  ; 
0369  2B                                  DCX  H                  ; 
036A  CD 2D 04                            CALL C_042D             ; 
036D  06 0F                               MVI  B, 0Fh             ; 
036F  CD 02 04                            CALL C_0402             ; 

0372  3E BE             J_0372:           MVI  A, 0BEh            ; 
0374  D3 24                               OUT  TIMERL             ; 
0376  3E C0                               MVI  A, 0C0h            ; 
0378  D3 25                               OUT  TIMERH             ; 
037A  3E CE                               MVI  A, 0CEh            ; 
037C  D3 20                               OUT  CSR                ; 
037E  3A AE 20                            LDA  D_20AE             ; 
0381  F6 80                               ORI  80h                ; 
0383  E6 FA                               ANI  0FAh               ; 
0385  32 AE 20                            STA  D_20AE             ; 
0388  47                                  MOV  B, A               ; 
0389  DB 22                               IN   PB                 ; 
038B  E6 01                               ANI  01h                ; 
038D  78                                  MOV  A, B               ; 
038E  D3 22                               OUT  PB                 ; 
0390  06 1E                               MVI  B, 1Eh             ; 
0392  C4 F6 03                            CNZ  C_03F6             ; 
0395  CD 66 04                            CALL C_0466             ; 
0398  FE 09                               CPI  09h                ; 
039A  F2 FA 04                            JP   J_04FA             ; 
039D  CD 9B 04                            CALL C_049B             ; 
03A0  0E 04                               MVI  C, 04h             ; 
03A2  21 9B 20                            LXI  H, 209Bh           ; 
03A5  CD CB 04                            CALL C_04CB             ; 
03A8  3A 9D 20                            LDA  D_209D             ; 
03AB  21 9B 20                            LXI  H, 209Bh           ; 
03AE  2F                                  CMA                     ; 
03AF  BE                                  CMP  M                  ; 
03B0  C2 D3 03                            JNZ  J_03D3             ; 
03B3  3A 9E 20                            LDA  D_209E             ; 
03B6  2F                                  CMA                     ; 
03B7  23                                  INX  H                  ; 
03B8  BE                                  CMP  M                  ; 
03B9  C2 D3 03                            JNZ  J_03D3             ; 
03BC  CD 12 05                            CALL C_0512             ; 
03BF  3A A7 20                            LDA  D_20A7             ; 
03C2  BB                                  CMP  E                  ; 
03C3  C2 1B 03                            JNZ  J_031B             ; 
03C6  3A A8 20                            LDA  D_20A8             ; 
03C9  BA                                  CMP  D                  ; 
03CA  C2 1B 03                            JNZ  J_031B             ; 
03CD  2E 08                               MVI  L, 08h             ; 
03CF  CD E4 03                            CALL C_03E4             ; 
03D2  C9                                  RET                     ; 

03D3  2E 10             J_03D3:           MVI  L, 10h             ; 
03D5  CD E4 03                            CALL C_03E4             ; 
03D8  21 B0 20                            LXI  H, 20B0h           ; 
03DB  34                                  INR  M                  ; 
03DC  C2 72 03                            JNZ  J_0372             ; 
03DF  3E E0                               MVI  A, 0E0h            ; 
03E1  C3 66 07                            JMP  J_0766             ; 

03E4  DB 23             C_03E4:           IN   PC                 ; 
03E6  AD                                  XRA  L                  ; 
03E7  D3 23                               OUT  PC                 ; 
03E9  AD                                  XRA  L                  ; 
03EA  D3 23                               OUT  PC                 ; 
03EC  C9                                  RET                     ; 

03ED  E6 FF             C_03ED:           ANI  0FFh               ; 
03EF  00                                  NOP                     ; 
03F0  00                                  NOP                     ; 
03F1  3D                                  DCR  A                  ; 
03F2  C2 ED 03                            JNZ  C_03ED             ; 
03F5  C9                                  RET                     ; 

03F6  3E 60             C_03F6:           MVI  A, 60h             ; 
03F8  CD ED 03                            CALL C_03ED             ; 
03FB  05                                  DCR  B                  ; 
03FC  C2 F6 03                            JNZ  C_03F6             ; 
03FF  C9                                  RET                     ; 

0400  06 2B             C_0400:           MVI  B, 2Bh             ; 

0402  DB 21             C_0402:           IN   PA                 ; 
0404  E6 10                               ANI  10h                ; 
0406  C0                                  RNZ                     ; 
0407  3A AE 20                            LDA  D_20AE             ; 
040A  EE 05                               XRI  05h                ; 
040C  D3 22                               OUT  PB                 ; 
040E  EE 01                               XRI  01h                ; 
0410  D3 22                               OUT  PB                 ; 
0412  E5                                  PUSH H                  ; 
0413  67                                  MOV  H, A               ; 

0414  48                J_0414:           MOV  C, B               ; 
0415  DB 21                               IN   PA                 ; 
0417  6F                                  MOV  L, A               ; 

0418  DB 21             J_0418:           IN   PA                 ; 
041A  AD                                  XRA  L                  ; 
041B  E6 02                               ANI  02h                ; 
041D  C2 14 04                            JNZ  J_0414             ; 
0420  0D                                  DCR  C                  ; 
0421  C2 18 04                            JNZ  J_0418             ; 
0424  3A AE 20                            LDA  D_20AE             ; 
0427  F6 01                               ORI  01h                ; 
0429  D3 22                               OUT  PB                 ; 
042B  E1                                  POP  H                  ; 
042C  C9                                  RET                     ; 

042D  3E 5F             C_042D:           MVI  A, 5Fh             ; 
042F  D3 24                               OUT  TIMERL             ; 
0431  3E C0                               MVI  A, 0C0h            ; 
0433  D3 25                               OUT  TIMERH             ; 
0435  3E CE                               MVI  A, 0CEh            ; 
0437  D3 20                               OUT  CSR                ; 
0439  3A AE 20                            LDA  D_20AE             ; 
043C  E6 7E                               ANI  7Eh                ; 
043E  32 AE 20                            STA  D_20AE             ; 
0441  D3 22                               OUT  PB                 ; 
0443  06 2D                               MVI  B, 2Dh             ; 
0445  CD F6 03                            CALL C_03F6             ; 

0448  CD 66 04          J_0448:           CALL C_0466             ; 
044B  FE 04                               CPI  04h                ; 
044D  FA 06 05                            JM   J_0506             ; 
0450  FE 09                               CPI  09h                ; 
0452  F2 F9 04                            JP   J_04F9             ; 
0455  CD 9B 04                            CALL C_049B             ; 
0458  CD F0 02                            CALL C_02F0             ; 
045B  2B                                  DCX  H                  ; 
045C  AF                                  XRA  A                  ; 
045D  BC                                  CMP  H                  ; 
045E  C2 48 04                            JNZ  J_0448             ; 
0461  BD                                  CMP  L                  ; 
0462  C2 48 04                            JNZ  J_0448             ; 
0465  C9                                  RET                     ; 

0466  16 0C             C_0466:           MVI  D, 0Ch             ; 
0468  1E 00                               MVI  E, 00h             ; 
046A  06 05                               MVI  B, 05h             ; 

046C  DB 21             J_046C:           IN   PA                 ; 
046E  E6 90                               ANI  90h                ; 
0470  CA 6C 04                            JZ   J_046C             ; 
0473  E6 10                               ANI  10h                ; 

0475  3E DF             J_0475:           MVI  A, 0DFh            ; 
0477  C2 66 07                            JNZ  J_0766             ; 

047A  CD BA 04          J_047A:           CALL C_04BA             ; 
047D  DB 21                               IN   PA                 ; 
047F  E6 80                               ANI  80h                ; 
0481  C2 8B 04                            JNZ  J_048B             ; 
0484  05                                  DCR  B                  ; 
0485  CA 66 04                            JZ   C_0466             ; 
0488  C3 7A 04                            JMP  J_047A             ; 

048B  20                J_048B:           RIM                     ; 
048C  E6 80                               ANI  80h                ; 
048E  CA 92 04                            JZ   J_0492             ; 
0491  1C                                  INR  E                  ; 

0492  15                J_0492:           DCR  D                  ; 
0493  C2 7A 04                            JNZ  J_047A             ; 
0496  3E 1D                               MVI  A, 1Dh             ; 
0498  30                                  SIM                     ; 
0499  7B                                  MOV  A, E               ; 
049A  C9                                  RET                     ; 

049B  F5                C_049B:           PUSH PSW                ; 
049C  3A AE 20                            LDA  D_20AE             ; 
049F  F6 01                               ORI  01h                ; 
04A1  D3 22                               OUT  PB                 ; 
04A3  00                                  NOP                     ; 
04A4  E6 FE                               ANI  0FEh               ; 
04A6  D3 22                               OUT  PB                 ; 

04A8  1E 03             J_04A8:           MVI  E, 03h             ; 

04AA  CD BA 04          J_04AA:           CALL C_04BA             ; 
04AD  DB 21                               IN   PA                 ; 
04AF  E6 90                               ANI  90h                ; 
04B1  C2 A8 04                            JNZ  J_04A8             ; 
04B4  1D                                  DCR  E                  ; 
04B5  C2 AA 04                            JNZ  J_04AA             ; 
04B8  F1                                  POP  PSW                ; 
04B9  C9                                  RET                     ; 

04BA  3E 1D             C_04BA:           MVI  A, 1Dh             ; 
04BC  30                                  SIM                     ; 

04BD  DB 21             J_04BD:           IN   PA                 ; 
04BF  E6 10                               ANI  10h                ; 
04C1  C2 75 04                            JNZ  J_0475             ; 
04C4  20                                  RIM                     ; 
04C5  E6 40                               ANI  40h                ; 
04C7  CA BD 04                            JZ   J_04BD             ; 
04CA  C9                                  RET                     ; 

04CB  3E 1B             C_04CB:           MVI  A, 1Bh             ; 
04CD  30                                  SIM                     ; 

04CE  FB                J_04CE:           EI                      ; 
04CF  76                                  HLT                     ; 
04D0  E6 80                               ANI  80h                ; 
04D2  CA CE 04                            JZ   J_04CE             ; 
04D5  FB                                  EI                      ; 
04D6  76                                  HLT                     ; 
04D7  FB                                  EI                      ; 
04D8  76                                  HLT                     ; 
04D9  FB                                  EI                      ; 
04DA  76                                  HLT                     ; 

04DB  FB                J_04DB:           EI                      ; 
04DC  76                                  HLT                     ; 
04DD  FB                                  EI                      ; 
04DE  76                                  HLT                     ; 
04DF  FB                                  EI                      ; 
04E0  76                                  HLT                     ; 
04E1  FB                                  EI                      ; 
04E2  76                                  HLT                     ; 
04E3  FB                                  EI                      ; 
04E4  76                                  HLT                     ; 
04E5  70                                  MOV  M, B               ; 
04E6  FB                                  EI                      ; 
04E7  76                                  HLT                     ; 
04E8  0D                                  DCR  C                  ; 
04E9  CA F4 04                            JZ   J_04F4             ; 
04EC  FB                                  EI                      ; 
04ED  76                                  HLT                     ; 
04EE  23                                  INX  H                  ; 
04EF  FB                                  EI                      ; 
04F0  76                                  HLT                     ; 
04F1  C3 DB 04                            JMP  J_04DB             ; 

04F4  3E 0D             J_04F4:           MVI  A, 0Dh             ; 
04F6  30                                  SIM                     ; 
04F7  FB                                  EI                      ; 
04F8  C9                                  RET                     ; 

04F9  F1                J_04F9:           POP  PSW                ; 

04FA  21 FF 03          J_04FA:           LXI  H, 03FFh           ; 
04FD  22 9B 20                            SHLD D_209B             ; 
0500  CD 12 05                            CALL C_0512             ; 
0503  C3 1B 03                            JMP  J_031B             ; 

0506  F1                J_0506:           POP  PSW                ; 
0507  06 28                               MVI  B, 28h             ; 
0509  CD F6 03                            CALL C_03F6             ; 
050C  CD 00 04                            CALL C_0400             ; 
050F  C3 72 03                            JMP  J_0372             ; 

0512  2A 9B 20          C_0512:           LHLD D_209B             ; 
0515  EB                                  XCHG                    ; 
0516  21 A3 20                            LXI  H, 20A3h           ; 
0519  3A 0B 20                            LDA  D_200B             ; 
051C  3D                                  DCR  A                  ; 
051D  FA 23 05                            JM   J_0523             ; 
0520  21 A5 20                            LXI  H, 20A5h           ; 

0523  73                J_0523:           MOV  M, E               ; 
0524  23                                  INX  H                  ; 
0525  72                                  MOV  M, D               ; 
0526  C9                                  RET                     ; 

0527  2A A7 20          C_0527:           LHLD D_20A7             ; 
052A  22 9F 20                            SHLD D_209F             ; 

052D  11 19 20          C_052D:           LXI  D, 2019h           ; 

0530  0E 80             C_0530:           MVI  C, 80h             ; 
0532  06 01                               MVI  B, 01h             ; 

0534  1A                J_0534:           LDAX D                  ; 
0535  CD F5 01                            CALL C_01F5             ; 
0538  13                                  INX  D                  ; 
0539  0D                                  DCR  C                  ; 
053A  C8                                  RZ                      ; 
053B  C3 34 05                            JMP  J_0534             ; 

053E  3E 10             C_053E:           MVI  A, 10h             ; 
0540  CD 13 02                            CALL C_0213             ; 
0543  C9                                  RET                     ; 

0544  3E F8             C_0544:           MVI  A, 0F8h            ; 
0546  32 AF 20                            STA  D_20AF             ; 

0549  CD 96 02          J_0549:           CALL C_0296             ; 
054C  3A AF 20                            LDA  D_20AF             ; 
054F  E6 01                               ANI  01h                ; 
0551  C2 5C 05                            JNZ  J_055C             ; 
0554  3A 0A 20                            LDA  D_200A             ; 
0557  E6 01                               ANI  01h                ; 
0559  CA 64 05                            JZ   J_0564             ; 

055C  3A AE 20          J_055C:           LDA  D_20AE             ; 
055F  E6 DF                               ANI  0DFh               ; 
0561  32 AE 20                            STA  D_20AE             ; 

0564  CD 16 03          J_0564:           CALL C_0316             ; 
0567  3E A2                               MVI  A, 0A2h            ; 
0569  CD ED 03                            CALL C_03ED             ; 
056C  0E 82                               MVI  C, 82h             ; 
056E  21 19 20                            LXI  H, 2019h           ; 
0571  CD CB 04                            CALL C_04CB             ; 
0574  CD 27 05                            CALL C_0527             ; 

0577  2A 9F 20          C_0577:           LHLD D_209F             ; 
057A  3A 99 20                            LDA  D_2099             ; 
057D  BD                                  CMP  L                  ; 
057E  C2 86 05                            JNZ  J_0586             ; 
0581  3A 9A 20                            LDA  D_209A             ; 
0584  BC                                  CMP  H                  ; 
0585  C8                                  RZ                      ; 

0586  2E 02             J_0586:           MVI  L, 02h             ; 
0588  CD E4 03                            CALL C_03E4             ; 
058B  CD 00 04                            CALL C_0400             ; 
058E  2A 9B 20                            LHLD D_209B             ; 
0591  23                                  INX  H                  ; 
0592  CD 12 05                            CALL C_0512             ; 
0595  3A 0C 20                            LDA  D_200C             ; 
0598  E6 10                               ANI  10h                ; 
059A  C2 AC 05                            JNZ  J_05AC             ; 
059D  21 AF 20                            LXI  H, 20AFh           ; 
05A0  34                                  INR  M                  ; 
05A1  3E 01                               MVI  A, 01h             ; 
05A3  32 B4 20                            STA  D_20B4             ; 
05A6  C2 49 05                            JNZ  J_0549             ; 
05A9  C3 B4 05                            JMP  J_05B4             ; 

05AC  3E 80             J_05AC:           MVI  A, 80h             ; 
05AE  32 18 20                            STA  D_2018             ; 
05B1  CD 3B 02                            CALL C_023B             ; 

05B4  3E EF             J_05B4:           MVI  A, 0EFh            ; 
05B6  C3 66 07                            JMP  J_0766             ; 

05B9  CD EB 06          V_05B9:           CALL C_06EB             ; 

05BC  CD 7E 02          J_05BC:           CALL C_027E             ; 
05BF  CD 3E 05                            CALL C_053E             ; 
05C2  D5                                  PUSH D                  ; 

05C3  CD 0A 03          J_05C3:           CALL C_030A             ; 
05C6  CD D2 00                            CALL C_00D2             ; 
05C9  3A A2 20                            LDA  D_20A2             ; 
05CC  E6 80                               ANI  80h                ; 
05CE  CA C3 05                            JZ   J_05C3             ; 
05D1  3A 07 20                            LDA  D_2007             ; 
05D4  FE 01                               CPI  01h                ; 
05D6  C2 6C 02                            JNZ  J_026C             ; 
05D9  D1                                  POP  D                  ; 

05DA  CD 96 02          J_05DA:           CALL C_0296             ; 
05DD  E5                                  PUSH H                  ; 
05DE  D5                                  PUSH D                  ; 
05DF  3A 08 20                            LDA  D_2008             ; 
05E2  D6 80                               SUI  80h                ; 
05E4  CA F2 05                            JZ   J_05F2             ; 
05E7  4F                                  MOV  C, A               ; 
05E8  21 98 20                            LXI  H, 2098h           ; 
05EB  AF                                  XRA  A                  ; 

05EC  77                J_05EC:           MOV  M, A               ; 
05ED  2B                                  DCX  H                  ; 
05EE  0C                                  INR  C                  ; 
05EF  C2 EC 05                            JNZ  J_05EC             ; 

05F2  CD 27 05          J_05F2:           CALL C_0527             ; 
05F5  2A 9F 20                            LHLD D_209F             ; 
05F8  22 99 20                            SHLD D_2099             ; 
05FB  21 00 00                            LXI  H, 0000h           ; 
05FE  22 13 20                            SHLD D_2013             ; 
0601  22 15 20                            SHLD D_2015             ; 
0604  21 00 80                            LXI  H, 8000h           ; 
0607  22 17 20                            SHLD D_2017             ; 
060A  3A AE 20                            LDA  D_20AE             ; 
060D  D3 22                               OUT  PB                 ; 
060F  DB 21                               IN   PA                 ; 
0611  E6 01                               ANI  01h                ; 
0613  3E F5                               MVI  A, 0F5h            ; 
0615  C2 66 07                            JNZ  J_0766             ; 
0618  D1                                  POP  D                  ; 
0619  E1                                  POP  H                  ; 
061A  CD 16 03                            CALL C_0316             ; 
061D  F3                                  DI                      ; 
061E  3E 0F                               MVI  A, 0Fh             ; 
0620  CD ED 03                            CALL C_03ED             ; 
0623  21 13 20                            LXI  H, 2013h           ; 
0626  06 86                               MVI  B, 86h             ; 
0628  16 8A                               MVI  D, 8Ah             ; 
062A  3A AE 20                            LDA  D_20AE             ; 
062D  F6 02                               ORI  02h                ; 
062F  5F                                  MOV  E, A               ; 
0630  E6 BF                               ANI  0BFh               ; 
0632  D3 22                               OUT  PB                 ; 
0634  0E 08                               MVI  C, 08h             ; 

0636  3E FF             J_0636:           MVI  A, 0FFh            ; 
0638  30                                  SIM                     ; 
0639  7E                                  MOV  A, M               ; 
063A  0F                                  RRC                     ; 
063B  77                                  MOV  M, A               ; 
063C  F6 7F                               ORI  7Fh                ; 
063E  30                                  SIM                     ; 
063F  0D                                  DCR  C                  ; 
0640  CA 53 06                            JZ   J_0653             ; 
0643  05                                  DCR  B                  ; 
0644  C2 62 06                            JNZ  J_0662             ; 
0647  7B                                  MOV  A, E               ; 
0648  D3 22                               OUT  PB                 ; 
064A  00                                  NOP                     ; 

064B  3E 7F             J_064B:           MVI  A, 7Fh             ; 
064D  30                                  SIM                     ; 
064E  00                                  NOP                     ; 
064F  00                                  NOP                     ; 
0650  C3 36 06                            JMP  J_0636             ; 

0653  15                J_0653:           DCR  D                  ; 
0654  CA 66 06                            JZ   J_0666             ; 
0657  23                                  INX  H                  ; 
0658  3E 7F                               MVI  A, 7Fh             ; 
065A  0E 08                               MVI  C, 08h             ; 
065C  30                                  SIM                     ; 
065D  05                                  DCR  B                  ; 
065E  00                                  NOP                     ; 
065F  C3 36 06                            JMP  J_0636             ; 

0662  04                J_0662:           INR  B                  ; 
0663  C3 4B 06                            JMP  J_064B             ; 

0666  3A AE 20          J_0666:           LDA  D_20AE             ; 
0669  D3 22                               OUT  PB                 ; 
066B  3E 0D                               MVI  A, 0Dh             ; 
066D  30                                  SIM                     ; 
066E  FB                                  EI                      ; 
066F  CD 00 04                            CALL C_0400             ; 
0672  3E FF                               MVI  A, 0FFh            ; 
0674  32 AF 20                            STA  D_20AF             ; 
0677  CD 77 05                            CALL C_0577             ; 
067A  2A 07 20                            LHLD D_2007             ; 
067D  22 9F 20                            SHLD D_209F             ; 
0680  CD 2D 05                            CALL C_052D             ; 
0683  2A 05 20                            LHLD D_2005             ; 
0686  22 99 20                            SHLD D_2099             ; 
0689  CD 77 05                            CALL C_0577             ; 
068C  3A 08 20                            LDA  D_2008             ; 
068F  CD E0 06                            CALL C_06E0             ; 
0692  CD CE 06                            CALL C_06CE             ; 
0695  DA BC 05                            JC   J_05BC             ; 
0698  3A A9 20                            LDA  D_20A9             ; 
069B  E6 03                               ANI  03h                ; 
069D  3A 0A 20                            LDA  D_200A             ; 
06A0  CA B7 06                            JZ   J_06B7             ; 
06A3  FE 00                               CPI  00h                ; 
06A5  FA B7 06                            JM   J_06B7             ; 
06A8  21 00 00                            LXI  H, 0000h           ; 
06AB  22 07 20                            SHLD D_2007             ; 
06AE  22 AB 20                            SHLD D_20AB             ; 
06B1  22 05 20                            SHLD D_2005             ; 
06B4  C3 DA 05                            JMP  J_05DA             ; 

06B7  FE 01             J_06B7:           CPI  01h                ; 
06B9  C2 C8 06                            JNZ  J_06C8             ; 
06BC  CD EB 06                            CALL C_06EB             ; 

06BF  CD 44 05          J_06BF:           CALL C_0544             ; 
06C2  CD CE 06                            CALL C_06CE             ; 
06C5  DA BF 06                            JC   J_06BF             ; 

06C8  CD 00 04          J_06C8:           CALL C_0400             ; 
06CB  C3 37 07                            JMP  V_0737             ; 

06CE  2A A9 20          C_06CE:           LHLD D_20A9             ; 
06D1  23                                  INX  H                  ; 
06D2  22 A9 20                            SHLD D_20A9             ; 
06D5  2A AB 20                            LHLD D_20AB             ; 
06D8  11 80 FF                            LXI  D, 0FF80h          ; 
06DB  19                                  DAD  D                  ; 
06DC  22 AB 20                            SHLD D_20AB             ; 
06DF  C9                                  RET                     ; 

06E0  21 03 20          C_06E0:           LXI  H, 2003h           ; 
06E3  86                                  ADD  M                  ; 
06E4  77                                  MOV  M, A               ; 
06E5  23                                  INX  H                  ; 
06E6  7E                                  MOV  A, M               ; 
06E7  CE 00                               ACI  00h                ; 
06E9  77                                  MOV  M, A               ; 
06EA  C9                                  RET                     ; 

06EB  2A 0F 20          C_06EB:           LHLD D_200F             ; 
06EE  2B                                  DCX  H                  ; 
06EF  22 AB 20                            SHLD D_20AB             ; 
06F2  2A 11 20                            LHLD D_2011             ; 
06F5  3A 0A 20                            LDA  D_200A             ; 
06F8  FE 00                               CPI  00h                ; 
06FA  FA 02 07                            JM   J_0702             ; 
06FD  5D                                  MOV  E, L               ; 
06FE  54                                  MOV  D, H               ; 
06FF  19                                  DAD  D                  ; 
0700  19                                  DAD  D                  ; 
0701  19                                  DAD  D                  ; 

0702  3E F8             J_0702:           MVI  A, 0F8h            ; 
0704  A4                                  ANA  H                  ; 
0705  3E C9                               MVI  A, 0C9h            ; 
0707  C2 66 07                            JNZ  J_0766             ; 
070A  22 A9 20                            SHLD D_20A9             ; 
070D  C9                                  RET                     ; 

070E  CD EB 06          V_070E:           CALL C_06EB             ; 

0711  CD 44 05          J_0711:           CALL C_0544             ; 
0714  CD CE 06                            CALL C_06CE             ; 
0717  D2 28 07                            JNC  J_0728             ; 
071A  3E 80                               MVI  A, 80h             ; 
071C  32 18 20                            STA  D_2018             ; 
071F  CD E0 06                            CALL C_06E0             ; 
0722  CD 3B 02                            CALL C_023B             ; 
0725  C3 11 07                            JMP  J_0711             ; 

0728  CD 00 04          J_0728:           CALL C_0400             ; 
072B  7D                                  MOV  A, L               ; 
072C  C6 81                               ADI  81h                ; 
072E  32 18 20                            STA  D_2018             ; 
0731  CD E0 06                            CALL C_06E0             ; 
0734  CD 3B 02                            CALL C_023B             ; 

0737  21 02 0A          V_0737:           LXI  H, 0A02h           ; 
073A  22 07 20                            SHLD D_2007             ; 
073D  3E 40                               MVI  A, 40h             ; 
073F  32 09 20                            STA  D_2009             ; 
0742  3A B4 20                            LDA  D_20B4             ; 
0745  32 0A 20                            STA  D_200A             ; 
0748  AF                                  XRA  A                  ; 
0749  32 11 20                            STA  D_2011             ; 
074C  3A B5 20                            LDA  D_20B5             ; 
074F  32 12 20                            STA  D_2012             ; 
0752  2A 03 20                            LHLD D_2003             ; 
0755  22 0F 20                            SHLD D_200F             ; 
0758  06 05                               MVI  B, 05h             ; 
075A  CD F6 03                            CALL C_03F6             ; 
075D  21 08 20                            LXI  H, 2008h           ; 
0760  CD 41 02                            CALL C_0241             ; 
0763  C3 77 00                            JMP  J_0077             ; 

0766  32 B4 20          J_0766:           STA  D_20B4             ; 
0769  3E 80                               MVI  A, 80h             ; 
076B  32 B5 20                            STA  D_20B5             ; 
076E  31 FF 20                            LXI  SP, 20FFh          ; 
0771  CD 17 00                            CALL C_0017             ; 
0774  C3 37 07                            JMP  V_0737             ; 

0777  CD 17 00          V_0777:           CALL C_0017             ; 
077A  C3 37 07                            JMP  V_0737             ; 

077D  3E 01             C_077D:           MVI  A, 01h             ; 
077F  D3 23                               OUT  PC                 ; 
0781  AF                                  XRA  A                  ; 
0782  32 B4 20                            STA  D_20B4             ; 
0785  06 C8                               MVI  B, 0C8h            ; 
0787  CD F6 03                            CALL C_03F6             ; 
078A  21 00 00                            LXI  H, 0000h           ; 
078D  22 9F 20                            SHLD D_209F             ; 
0790  EB                                  XCHG                    ; 

0791  CD 30 05          J_0791:           CALL C_0530             ; 
0794  3E 08                               MVI  A, 08h             ; 
0796  BA                                  CMP  D                  ; 
0797  C2 91 07                            JNZ  J_0791             ; 
079A  2A 9F 20                            LHLD D_209F             ; 
079D  2C                                  INR  L                  ; 
079E  C2 C8 07                            JNZ  J_07C8             ; 
07A1  24                                  INR  H                  ; 
07A2  C2 C8 07                            JNZ  J_07C8             ; 
07A5  21 10 20                            LXI  H, 2010h           ; 

07A8  75                J_07A8:           MOV  M, L               ; 
07A9  2C                                  INR  L                  ; 
07AA  3E F0                               MVI  A, 0F0h            ; 
07AC  BD                                  CMP  L                  ; 
07AD  C2 A8 07                            JNZ  J_07A8             ; 

07B0  2D                J_07B0:           DCR  L                  ; 
07B1  7E                                  MOV  A, M               ; 
07B2  BD                                  CMP  L                  ; 
07B3  C2 C8 07                            JNZ  J_07C8             ; 
07B6  FE 10                               CPI  10h                ; 
07B8  C2 B0 07                            JNZ  J_07B0             ; 
07BB  CD 45 00                            CALL J_0045             ; 
07BE  3E 05                               MVI  A, 05h             ; 
07C0  D3 23                               OUT  PC                 ; 
07C2  AF                                  XRA  A                  ; 
07C3  67                                  MOV  H, A               ; 
07C4  6F                                  MOV  L, A               ; 
07C5  C3 CB 07                            JMP  J_07CB             ; 

07C8  21 FF 80          J_07C8:           LXI  H, 80FFh           ; 

07CB  22 B4 20          J_07CB:           SHLD D_20B4             ; 
07CE  C9                                  RET                     ; 

07CF  CD 7D 07          V_07CF:           CALL C_077D             ; 
07D2  C3 37 07                            JMP  V_0737             ; 

07D5  21 E4 07          V_07D5:           LXI  H, 07E4h           ; 
07D8  CD 41 02                            CALL C_0241             ; 
07DB  3E 18                               MVI  A, 18h             ; 
07DD  32 03 20                            STA  D_2003             ; 
07E0  C3 37 07                            JMP  V_0737             ; 

07E3  01                                  DB   01h                ; (UNREACHABLE) 
07E4  18                                  DB   18h                ; (UNREACHABLE) 
07E5  00                                  DB   00h                ; (UNREACHABLE) 
07E6  18                                  DB   18h                ; (UNREACHABLE) 
07E7  01                                  DB   01h                ; (UNREACHABLE) 
07E8  00                                  DB   00h                ; (UNREACHABLE) 
07E9  01                                  DB   01h                ; (UNREACHABLE) 
07EA  01                                  DB   01h                ; (UNREACHABLE) 
07EB  00                                  DB   00h                ; (UNREACHABLE) 
07EC  00                                  DB   00h                ; (UNREACHABLE) 
07ED  00                                  DB   00h                ; (UNREACHABLE) 
07EE  00                                  DB   00h                ; (UNREACHABLE) 
07EF  01                                  DB   01h                ; (UNREACHABLE) 
07F0  00                                  DB   00h                ; (UNREACHABLE) 
07F1  07                                  DB   07h                ; (UNREACHABLE) 
07F2  00                                  DB   00h                ; (UNREACHABLE) 
07F3  00                                  DB   00h                ; (UNREACHABLE) 
07F4  02                                  DB   02h                ; (UNREACHABLE) 
07F5  00                                  DB   00h                ; (UNREACHABLE) 
07F6  00                                  DB   00h                ; (UNREACHABLE) 
07F7  80                                  DB   80h                ; (UNREACHABLE) 
07F8  00                                  DB   00h                ; (UNREACHABLE) 
07F9  80                                  DB   80h                ; (UNREACHABLE) 
07FA  00                                  DB   00h                ; (UNREACHABLE) 
07FB  02                                  DB   02h                ; (UNREACHABLE) 
07FC  00                                  DB   00h                ; (UNREACHABLE) 
07FD  00                                  DB   00h                ; (UNREACHABLE) 
07FE  97                                  DB   97h                ; (UNREACHABLE) 
07FF  9F                                  DB   9Fh                ; (UNREACHABLE) 

                                          END

                        ; Cross-Reference List:
                        ; (Does not include calls via computed addresses or vectors)

                        ; C_0013:           000Ah 0071h 0232h 0270h J_014A
                        ; C_0017:           0771h V_0777
                        ; C_001A:           00EBh
                        ; C_00D2:           008Dh 0278h 05C6h J_005D
                        ; C_01F5:           01BCh 024Fh 0535h
                        ; C_0213:           0110h 0253h 0268h 0275h 0540h
                        ; C_023B:           05B1h 0722h 0734h
                        ; C_0241:           0760h 07D8h
                        ; C_0262:           025Eh
                        ; C_027E:           007Ah J_05BC
                        ; C_0296:           028Ah J_0549 J_05DA
                        ; C_02F0:           0458h J_02E8 J_031B
                        ; C_030A:           C_02F0 J_008A J_05C3
                        ; C_0316:           028Dh 061Ah J_0564
                        ; C_03E4:           03CFh 03D5h 0588h
                        ; C_03ED:           0264h 03F2h 03F8h 0569h 0620h
                        ; C_03F6:           00F2h 0392h 03FCh 0445h 0509h 075Ah 0787h J_012D
                        ; C_0400:           0107h 0219h 0290h 0352h 050Ch 058Bh 066Fh J_06C8 J_0728
                        ; C_0402:           036Fh
                        ; C_042D:           034Fh 036Ah
                        ; C_0466:           0395h 0485h J_0448
                        ; C_049B:           039Dh 0455h
                        ; C_04BA:           J_047A J_04AA
                        ; C_04CB:           03A5h 0571h
                        ; C_0512:           03BCh 0500h 0592h
                        ; C_0527:           0574h J_05F2
                        ; C_052D:           0680h
                        ; C_0530:           J_0791
                        ; C_053E:           0235h 05BFh
                        ; C_0544:           J_0104 J_06BF J_0711
                        ; C_0577:           0677h 0689h
                        ; C_06CE:           0692h 06C2h 0714h
                        ; C_06E0:           068Fh 071Fh 0731h
                        ; C_06EB:           06BCh V_0287 V_05B9 V_070E
                        ; C_077D:           000Dh 00F5h V_07CF
                        ; J_0045:           0021h 07BBh
                        ; J_005D:           0030h 0063h 006Eh
                        ; J_0077:           0150h 0238h 0763h
                        ; J_008A:           0095h
                        ; J_00E2:           00D9h
                        ; J_00E5:           0007h
                        ; J_0104:           013Fh 0147h
                        ; J_010F:           0132h
                        ; J_012D:           0128h
                        ; J_0130:           0119h
                        ; J_014A:           011Fh
                        ; J_0168:           015Dh
                        ; J_0177:           016Dh
                        ; J_019C:           0191h
                        ; J_019F:           0158h 01B7h 01CAh 01D7h 01F2h
                        ; J_01A2:           0165h 0174h 01C4h
                        ; J_01C7:           01C0h
                        ; J_01FE:           020Eh
                        ; J_0206:           01FBh
                        ; J_0217:           0220h 0227h
                        ; J_022F:           017Ah
                        ; J_024E:           0258h
                        ; J_026C:           0010h 0067h 009Dh 0182h 0199h 01AFh 01D1h 01DEh 05D6h
                        ; J_0273:           027Bh
                        ; J_02BA:           02B5h
                        ; J_02CA:           02BFh
                        ; J_02D6:           02C2h
                        ; J_02DB:           02D3h
                        ; J_02E8:           02E3h
                        ; J_031B:           03C3h 03CAh 0503h
                        ; J_0332:           035Eh
                        ; J_0358:           032Fh
                        ; J_0367:           035Ah
                        ; J_0372:           0355h 0364h 03DCh 050Fh
                        ; J_03D3:           03B0h 03B9h
                        ; J_0414:           041Dh
                        ; J_0418:           0421h
                        ; J_0448:           045Eh 0462h
                        ; J_046C:           0470h
                        ; J_0475:           04C1h
                        ; J_047A:           0488h 0493h
                        ; J_048B:           0481h
                        ; J_0492:           048Eh
                        ; J_04A8:           04B1h
                        ; J_04AA:           04B5h
                        ; J_04BD:           04C7h
                        ; J_04CE:           04D2h
                        ; J_04DB:           04F1h
                        ; J_04F4:           04E9h
                        ; J_04F9:           0452h
                        ; J_04FA:           039Ah
                        ; J_0506:           044Dh
                        ; J_0523:           051Dh
                        ; J_0534:           053Bh
                        ; J_0549:           05A6h
                        ; J_055C:           0551h
                        ; J_0564:           0559h
                        ; J_0586:           057Eh
                        ; J_05AC:           059Ah
                        ; J_05B4:           05A9h
                        ; J_05BC:           0695h
                        ; J_05C3:           05CEh
                        ; J_05DA:           06B4h
                        ; J_05EC:           05EFh
                        ; J_05F2:           05E4h
                        ; J_0636:           0650h 065Fh
                        ; J_064B:           0663h
                        ; J_0653:           0640h
                        ; J_0662:           0644h
                        ; J_0666:           0654h
                        ; J_06B7:           06A0h 06A5h
                        ; J_06BF:           06C5h
                        ; J_06C8:           06B9h
                        ; J_0702:           06FAh
                        ; J_0711:           0725h
                        ; J_0728:           0717h
                        ; J_0766:           00A7h 02A4h 02C7h 02FCh 033Bh 03E1h 0477h 05B6h 0615h 0707h
                        ; J_0791:           0797h
                        ; J_07A8:           07ADh
                        ; J_07B0:           07B8h
                        ; J_07C8:           079Eh 07A2h 07B3h
                        ; J_07CB:           07C5h
                        ; V_0737:           0293h 06CBh 0774h 077Ah 07D2h 07E0h
